HW5) Data Wrangling
…
1 Very specific prompts

Based on the column date, add—i.e. mutate()—a column year and a column month to the table expenses. Do this by using the functions year() and month()—which are part of the package "lubridate". With the updated expenses, display its last 10 rows.

# your code
expenses = mutate(expenses, year = year(date), month = month(date))
expenses

# A tibble: 2,021 × 8
   concept         amount date       category  mode   type           year month
   <chr>            <dbl> <date>     <chr>     <chr>  <chr>         <dbl> <dbl>
 1 rent           1619.   2019-01-03 housing   debit  cost-living    2019     1
 2 internet         67.0  2019-01-07 utilities debit  cost-living    2019     1
 3 home insurance   16.5  2019-01-09 insurance debit  cost-living    2019     1
 4 cell phone       58.4  2019-01-14 utilities credit cost-living    2019     1
 5 life insurance   86.0  2019-01-07 insurance credit cost-living    2019     1
 6 energy            4.92 2019-01-10 utilities debit  cost-living    2019     1
 7 car insurance   384.   2019-01-09 insurance credit cost-living    2019     1
 8 retailer         39.7  2019-01-03 gifts     credit discretionary  2019     1
 9 retailer         32.7  2019-01-16 gifts     debit  discretionary  2019     1
10 groceries       104.   2019-01-21 food      credit cost-living    2019     1
# ℹ 2,011 more rows
…
